A ggplot2 Tutorial for Beautiful Plotting in R - Cédric Scherer
…
Now we put the resulting matrix in long format using the pivot_longer() function from the {tidyr} package:

corm <- corm %>%
  pivot_longer(
    cols = -rowname,
    names_to = "colname",
    values_to = "corr"
  ) %>%
  mutate(rowname = fct_inorder(rowname),
         colname = fct_inorder(colname))

## # A tibble: 25 x 3
##    rowname colname      corr
##    <fct>   <fct>       <dbl>
##  1 death   death     1      
##  2 death   temp     -0.486  
##  3 death   dewpoint -0.465  
##  4 death   pm10     -0.00294
##  5 death   o3       -0.238  
##  6 temp    death    NA      
##  7 temp    temp      1      
##  8 temp    dewpoint  0.958  
##  9 temp    pm10      0.368  
## 10 temp    o3        0.535  
## # ... with 15 more rows
…
