1. Introduction to R and RStudio - Cédric Scherer - Data Visualization in R with ggplot2
…
  - show only the first 10 rows, and all the columns that fit on screen

  - in addition to its name, each column reports its type
  
  - also, the type of the data and its dimensions are shown

---

## Data Frame vs Tibble

.pull-left[

```r
tbl_flights
## # A tibble: 100 x 13
##     year month   day sched_dep_time
##    <int> <int> <int>          <int>
##  1  2013     1     1            515
##  2  2013     1     1            529
##  3  2013     1     1            540
##  4  2013     1     1            545
##  5  2013     1     1            600
##  6  2013     1     1            558
##  7  2013     1     1            600
##  8  2013     1     1            600
##  9  2013     1     1            600
## 10  2013     1     1            600
## # ... with 90 more rows, and 9 more
## #   variables: dep_delay <dbl>,
## #   sched_arr_time <int>,
## #   arr_delay <dbl>, carrier <chr>,
## #   flight <int>, tailnum <chr>,
## #   origin <chr>, dest <chr>,
## #   time_hour <dttm>
```
…
<br>
* <span style='font-size:15pt;'>makes it easy for an analyst or a computer to extract needed variables</span>

* <span style='font-size:15pt;'>ensures that values of different variables from the same observation are always paired</span>

* <span style='font-size:15pt;'>a good ordering makes it easier to scan the raw values</span>

---

## Your Turn!

<br>

```r
#> # A tibble: 12 x 4
#>   country      year type           count
#>   <chr>       <int> <chr>          <int>
#> 1 Afghanistan  1999 cases            745
#> 2 Afghanistan  1999 population  19987071
#> 3 Afghanistan  2000 cases           2666
#> 4 Afghanistan  2000 population  20595360
#> 5 Brazil       1999 cases          37737
#> 6 Brazil       1999 population 172006362
#> # … with 6 more rows
```
…
