4. Data Transformation with dplyr - Cédric Scherer - Data Visualization in R with ggplot2
…
---

## Pick Rows with Matching Criteria

`filter(data, condition)`&nbsp;&nbsp;&rarr;&nbsp;&nbsp;join filtering conditions with `&` and `|`:

```r
filter(babynames, (name == "Cedric" | name == "Robert"))
## # A tibble: 426 x 5
##     year sex   name       n      prop
##    <dbl> <chr> <chr>  <int>     <dbl>
##  1  1880 F     Robert    12 0.000123 
##  2  1880 M     Robert  2415 0.0204   
##  3  1881 F     Robert     9 0.0000910
##  4  1881 M     Robert  2140 0.0198   
##  5  1882 F     Robert    12 0.000104 
##  6  1882 M     Robert  2500 0.0205   
##  7  1883 F     Robert    11 0.0000916
##  8  1883 M     Robert  2334 0.0208   
##  9  1884 F     Robert     7 0.0000509
## 10  1884 M     Robert  2468 0.0201   
## # ... with 416 more rows
```
…
# <code style='font-size:70pt;color:#ebc500'>select()</code><br>
# <b style='font-size:25pt;color:#a7a7a7;font-weight:400;'>Pick Columns with Matching Criteria</b><br><br>

<img src="img/dplyr.png" style='width: 18%;'><br>

---

## Pick Columns with Matching Criteria

`select(data, condition)` allows you to select a subset of **rows**:

```r
select(babynames, name, year, n)
## # A tibble: 1,924,665 x 3
##    name       year     n
##    <chr>     <dbl> <int>
##  1 Mary       1880  7065
##  2 Anna       1880  2604
##  3 Emma       1880  2003
##  4 Elizabeth  1880  1939
##  5 Minnie     1880  1746
##  6 Margaret   1880  1578
##  7 Ida        1880  1472
##  8 Alice      1880  1414
##  9 Bertha     1880  1320
## 10 Sarah      1880  1288
## # ... with 1,924,655 more rows
```
---

## Pick Columns with Matching Criteria

`select(data, condition)` allows you to select a subset of **columns**:

```r
select(babynames, name, year, n)
```

Equivalent code in base `R`:

```r
babynames[, c("name", "year", "n")]
## # A tibble: 1,924,665 x 3
##    name       year     n
##    <chr>     <dbl> <int>
##  1 Mary       1880  7065
##  2 Anna       1880  2604
##  3 Emma       1880  2003
##  4 Elizabeth  1880  1939
##  5 Minnie     1880  1746
##  6 Margaret   1880  1578
##  7 Ida        1880  1472
##  8 Alice      1880  1414
##  9 Bertha     1880  1320
## 10 Sarah      1880  1288
## # ... with 1,924,655 more rows
```

---

## Pick Columns with Matching Criteria

`select(data, condition)` allows you to select a subset of **columns**:

.pull-left[

```r
select(babynames, name, year, n)
## # A tibble: 1,924,665 x 3
##    name       year     n
##    <chr>     <dbl> <int>
##  1 Mary       1880  7065
##  2 Anna       1880  2604
##  3 Emma       1880  2003
##  4 Elizabeth  1880  1939
##  5 Minnie     1880  1746
##  6 Margaret   1880  1578
##  7 Ida        1880  1472
##  8 Alice      1880  1414
##  9 Bertha     1880  1320
## 10 Sarah      1880  1288
## # ... with 1,924,655 more rows
```
]

.pull-right[

```r
select(babynames, -prop, -sex)
## # A tibble: 1,924,665 x 3
##     year name          n
##    <dbl> <chr>     <int>
##  1  1880 Mary       7065
##  2  1880 Anna       2604
##  3  1880 Emma       2003
##  4  1880 Elizabeth  1939
##  5  1880 Minnie     1746
##  6  1880 Margaret   1578
##  7  1880 Ida        1472
##  8  1880 Alice      1414
##  9  1880 Bertha     1320
## 10  1880 Sarah      1288
## # ... with 1,924,655 more rows
```
…
# <code style='font-size:70pt;color:#ebc500'>arrange()</code><br>
# <b style='font-size:25pt;color:#a7a7a7;font-weight:400;'>Reorder Rows</b><br><br>

<img src="img/dplyr.png" style='width: 18%;'><br>

---

## Reorder Rows

`arrange(data, condition)` allows you to order rows by variables:

```r
arrange(babynames, prop)
## # A tibble: 1,924,665 x 5
##     year sex   name            n       prop
##    <dbl> <chr> <chr>       <int>      <dbl>
##  1  2007 M     Aaban           5 0.00000226
##  2  2007 M     Aareon          5 0.00000226
##  3  2007 M     Aaris           5 0.00000226
##  4  2007 M     Abd             5 0.00000226
##  5  2007 M     Abdulazeez      5 0.00000226
##  6  2007 M     Abdulhadi       5 0.00000226
##  7  2007 M     Abdulhamid      5 0.00000226
##  8  2007 M     Abdulkadir      5 0.00000226
##  9  2007 M     Abdulraheem     5 0.00000226
## 10  2007 M     Abdulrahim      5 0.00000226
## # ... with 1,924,655 more rows
```
---

## Reorder Rows

`arrange(data, condition)` allows you to order rows by variables:

```r
arrange(babynames, prop)
```

Equivalent code in base `R`:

```r
babynames[order(babynames$prop), ]
## # A tibble: 1,924,665 x 5
##     year sex   name            n       prop
##    <dbl> <chr> <chr>       <int>      <dbl>
##  1  2007 M     Aaban           5 0.00000226
##  2  2007 M     Aareon          5 0.00000226
##  3  2007 M     Aaris           5 0.00000226
##  4  2007 M     Abd             5 0.00000226
##  5  2007 M     Abdulazeez      5 0.00000226
##  6  2007 M     Abdulhadi       5 0.00000226
##  7  2007 M     Abdulhamid      5 0.00000226
##  8  2007 M     Abdulkadir      5 0.00000226
##  9  2007 M     Abdulraheem     5 0.00000226
## 10  2007 M     Abdulrahim      5 0.00000226
## # ... with 1,924,655 more rows
```

---

## Reorder Rows

`arrange(data, condition)` allows you to order rows by variables:

```r
arrange(babynames, year, sex, -prop)
## # A tibble: 1,924,665 x 5
##     year sex   name          n   prop
##    <dbl> <chr> <chr>     <int>  <dbl>
##  1  1880 F     Mary       7065 0.0724
##  2  1880 F     Anna       2604 0.0267
##  3  1880 F     Emma       2003 0.0205
##  4  1880 F     Elizabeth  1939 0.0199
##  5  1880 F     Minnie     1746 0.0179
##  6  1880 F     Margaret   1578 0.0162
##  7  1880 F     Ida        1472 0.0151
##  8  1880 F     Alice      1414 0.0145
##  9  1880 F     Bertha     1320 0.0135
## 10  1880 F     Sarah      1288 0.0132
## # ... with 1,924,655 more rows
```
…
---
class: center, middle

<img src="img/ah_dplyr_mutate.png" style='width:60%;'><br><i style='font-size:10pt;color:grey'>Illustration by Allison Horst (github.com/allisonhorst/stats-illustrations)</i>

---

## Create New Variables

`mutate(data, condition)` allows you to create new variables (columns) based or not based on other variables:

```r
mutate(babynames, decade = year %% 10 * 10)
## # A tibble: 1,924,665 x 6
##     year sex   name          n   prop decade
##    <dbl> <chr> <chr>     <int>  <dbl>  <dbl>
##  1  1880 F     Mary       7065 0.0724      0
##  2  1880 F     Anna       2604 0.0267      0
##  3  1880 F     Emma       2003 0.0205      0
##  4  1880 F     Elizabeth  1939 0.0199      0
##  5  1880 F     Minnie     1746 0.0179      0
##  6  1880 F     Margaret   1578 0.0162      0
##  7  1880 F     Ida        1472 0.0151      0
##  8  1880 F     Alice      1414 0.0145      0
##  9  1880 F     Bertha     1320 0.0135      0
## 10  1880 F     Sarah      1288 0.0132      0
## # ... with 1,924,655 more rows
```
…
---

## Create New Variables

`mutate(data, condition)` allows you to create new variables (columns) based or not based on other variables:

```r
mutate(babynames, name = str_to_lower(name))
## # A tibble: 1,924,665 x 5
##     year sex   name          n   prop
##    <dbl> <chr> <chr>     <int>  <dbl>
##  1  1880 F     mary       7065 0.0724
##  2  1880 F     anna       2604 0.0267
##  3  1880 F     emma       2003 0.0205
##  4  1880 F     elizabeth  1939 0.0199
##  5  1880 F     minnie     1746 0.0179
##  6  1880 F     margaret   1578 0.0162
##  7  1880 F     ida        1472 0.0151
##  8  1880 F     alice      1414 0.0145
##  9  1880 F     bertha     1320 0.0135
## 10  1880 F     sarah      1288 0.0132
## # ... with 1,924,655 more rows
```

---

## Create New Variables

`mutate(data, condition)` allows you to create new variables (columns) based or not based on other variables:

```r
mutate(babynames, note = "Please check!")
## # A tibble: 1,924,665 x 6
##     year sex   name          n   prop note         
##    <dbl> <chr> <chr>     <int>  <dbl> <chr>        
##  1  1880 F     Mary       7065 0.0724 Please check!
##  2  1880 F     Anna       2604 0.0267 Please check!
##  3  1880 F     Emma       2003 0.0205 Please check!
##  4  1880 F     Elizabeth  1939 0.0199 Please check!
##  5  1880 F     Minnie     1746 0.0179 Please check!
##  6  1880 F     Margaret   1578 0.0162 Please check!
##  7  1880 F     Ida        1472 0.0151 Please check!
##  8  1880 F     Alice      1414 0.0145 Please check!
##  9  1880 F     Bertha     1320 0.0135 Please check!
## 10  1880 F     Sarah      1288 0.0132 Please check!
## # ... with 1,924,655 more rows
```

---

## Create New Variables

`mutate(data, condition)` allows you to create new variables (columns) based or not based on other variables:

```r
mutate(babynames, id = row_number())
## # A tibble: 1,924,665 x 6
##     year sex   name          n   prop    id
##    <dbl> <chr> <chr>     <int>  <dbl> <int>
##  1  1880 F     Mary       7065 0.0724     1
##  2  1880 F     Anna       2604 0.0267     2
##  3  1880 F     Emma       2003 0.0205     3
##  4  1880 F     Elizabeth  1939 0.0199     4
##  5  1880 F     Minnie     1746 0.0179     5
##  6  1880 F     Margaret   1578 0.0162     6
##  7  1880 F     Ida        1472 0.0151     7
##  8  1880 F     Alice      1414 0.0145     8
##  9  1880 F     Bertha     1320 0.0135     9
## 10  1880 F     Sarah      1288 0.0132    10
## # ... with 1,924,655 more rows
```

---

## Create New Variables

`mutate(data, condition)` allows you to create new variables (columns) based or not based on other variables:

```r
mpg2 <- select(mpg, model, hwy, cty) ## only for visualization
mutate(mpg2, diff = hwy - cty, perc = diff / hwy)
## # A tibble: 234 x 5
##    model        hwy   cty  diff  perc
##    <chr>      <int> <int> <int> <dbl>
##  1 a4            29    18    11 0.379
##  2 a4            29    21     8 0.276
##  3 a4            31    20    11 0.355
##  4 a4            30    21     9 0.3  
##  5 a4            26    16    10 0.385
##  6 a4            26    18     8 0.308
##  7 a4            27    18     9 0.333
##  8 a4 quattro    26    18     8 0.308
##  9 a4 quattro    25    16     9 0.36 
## 10 a4 quattro    28    20     8 0.286
## # ... with 224 more rows
```
…
---

## Create New Variables

`mutate_if(data, condition)` allows you to conditionally create several new columns in one step:

```r
mutate_if(mpg2, is.numeric, as.character)
## # A tibble: 234 x 3
##    model      hwy   cty  
##    <chr>      <chr> <chr>
##  1 a4         29    18   
##  2 a4         29    21   
##  3 a4         31    20   
##  4 a4         30    21   
##  5 a4         26    16   
##  6 a4         26    18   
##  7 a4         27    18   
##  8 a4 quattro 26    18   
##  9 a4 quattro 25    16   
## 10 a4 quattro 28    20   
## # ... with 224 more rows
```

---

## Create New Variables

`mutate_if(data, condition)` allows you to conditionally create several new columns in one step:

```r
mutate_if(mpg2, is.numeric, list(avg = mean, log_2 = log2))
## # A tibble: 234 x 7
##    model        hwy   cty hwy_avg cty_avg hwy_log_2 cty_log_2
##    <chr>      <int> <int>   <dbl>   <dbl>     <dbl>     <dbl>
##  1 a4            29    18    23.4    16.9      4.86      4.17
##  2 a4            29    21    23.4    16.9      4.86      4.39
##  3 a4            31    20    23.4    16.9      4.95      4.32
##  4 a4            30    21    23.4    16.9      4.91      4.39
##  5 a4            26    16    23.4    16.9      4.70      4   
##  6 a4            26    18    23.4    16.9      4.70      4.17
##  7 a4            27    18    23.4    16.9      4.75      4.17
##  8 a4 quattro    26    18    23.4    16.9      4.70      4.17
##  9 a4 quattro    25    16    23.4    16.9      4.64      4   
## 10 a4 quattro    28    20    23.4    16.9      4.81      4.32
## # ... with 224 more rows
```

---

## Create New Variables

`mutate_if(data, condition)` allows you to conditionally create several new columns in one step:

```r
mutate_if(mpg2, is.numeric, list(~mean(., na.rm = T), ~log2(.)))
## # A tibble: 234 x 7
##    model        hwy   cty hwy_mean cty_mean hwy_log2 cty_log2
##    <chr>      <int> <int>    <dbl>    <dbl>    <dbl>    <dbl>
##  1 a4            29    18     23.4     16.9     4.86     4.17
##  2 a4            29    21     23.4     16.9     4.86     4.39
##  3 a4            31    20     23.4     16.9     4.95     4.32
##  4 a4            30    21     23.4     16.9     4.91     4.39
##  5 a4            26    16     23.4     16.9     4.70     4   
##  6 a4            26    18     23.4     16.9     4.70     4.17
##  7 a4            27    18     23.4     16.9     4.75     4.17
##  8 a4 quattro    26    18     23.4     16.9     4.70     4.17
##  9 a4 quattro    25    16     23.4     16.9     4.64     4   
## 10 a4 quattro    28    20     23.4     16.9     4.81     4.32
## # ... with 224 more rows
```

---

## Create New Variables

`mutate_at(data, condition)` allows you to conditionally transform several columns in one step:

```r
mutate_at(mpg2, c("hwy", "cty"), mean, na.rm = TRUE)
## # A tibble: 234 x 3
##    model        hwy   cty
##    <chr>      <dbl> <dbl>
##  1 a4          23.4  16.9
##  2 a4          23.4  16.9
##  3 a4          23.4  16.9
##  4 a4          23.4  16.9
##  5 a4          23.4  16.9
##  6 a4          23.4  16.9
##  7 a4          23.4  16.9
##  8 a4 quattro  23.4  16.9
##  9 a4 quattro  23.4  16.9
## 10 a4 quattro  23.4  16.9
## # ... with 224 more rows
```

---

## Create New Variables

`mutate_all(data, condition)` allows you to transform all columns in one step:

```r
mutate_all(mpg2, mean, na.rm = TRUE)
## # A tibble: 234 x 3
##    model   hwy   cty
##    <dbl> <dbl> <dbl>
##  1    NA  23.4  16.9
##  2    NA  23.4  16.9
##  3    NA  23.4  16.9
##  4    NA  23.4  16.9
##  5    NA  23.4  16.9
##  6    NA  23.4  16.9
##  7    NA  23.4  16.9
##  8    NA  23.4  16.9
##  9    NA  23.4  16.9
## 10    NA  23.4  16.9
## # ... with 224 more rows
```

---

## Create New Variables

`mutate_all(data, condition)` allows you to transform all columns in one step:

```r
mutate_all(mpg2, list(~mean(., na.rm = T), ~nchar(.)))
## # A tibble: 234 x 9
##    model   hwy   cty model_mean hwy_mean cty_mean model_nchar hwy_nchar
##    <chr> <int> <int>      <dbl>    <dbl>    <dbl>       <int>     <int>
##  1 a4       29    18         NA     23.4     16.9           2         2
##  2 a4       29    21         NA     23.4     16.9           2         2
##  3 a4       31    20         NA     23.4     16.9           2         2
##  4 a4       30    21         NA     23.4     16.9           2         2
##  5 a4       26    16         NA     23.4     16.9           2         2
##  6 a4       26    18         NA     23.4     16.9           2         2
##  7 a4       27    18         NA     23.4     16.9           2         2
##  8 a4 q~    26    18         NA     23.4     16.9          10         2
##  9 a4 q~    25    16         NA     23.4     16.9          10         2
## 10 a4 q~    28    20         NA     23.4     16.9          10         2
## # ... with 224 more rows, and 1 more variable: cty_nchar <int>
```
…
# <code style='font-size:70pt;color:#ebc500'>group_by()</code><br>
# <b style='font-size:25pt;color:#a7a7a7;font-weight:400;'>Create Subsets</b><br><br>

<img src="img/dplyr.png" style='width: 18%;'><br>

---

## Create Subsets

`group_by(data, condition)` allows you to break down your data into specified groups based on variables:

```r
group_by(babynames, sex)
## # A tibble: 1,924,665 x 5
## # Groups:   sex [2]
##     year sex   name          n   prop
##    <dbl> <chr> <chr>     <int>  <dbl>
##  1  1880 F     Mary       7065 0.0724
##  2  1880 F     Anna       2604 0.0267
##  3  1880 F     Emma       2003 0.0205
##  4  1880 F     Elizabeth  1939 0.0199
##  5  1880 F     Minnie     1746 0.0179
##  6  1880 F     Margaret   1578 0.0162
##  7  1880 F     Ida        1472 0.0151
##  8  1880 F     Alice      1414 0.0145
##  9  1880 F     Bertha     1320 0.0135
## 10  1880 F     Sarah      1288 0.0132
## # ... with 1,924,655 more rows
```

---

## Create Subsets

`group_by(data, condition)` allows you to break down your data into specified groups based on variables:

```r
group_by(babynames, sex, year)
## # A tibble: 1,924,665 x 5
## # Groups:   sex, year [276]
##     year sex   name          n   prop
##    <dbl> <chr> <chr>     <int>  <dbl>
##  1  1880 F     Mary       7065 0.0724
##  2  1880 F     Anna       2604 0.0267
##  3  1880 F     Emma       2003 0.0205
##  4  1880 F     Elizabeth  1939 0.0199
##  5  1880 F     Minnie     1746 0.0179
##  6  1880 F     Margaret   1578 0.0162
##  7  1880 F     Ida        1472 0.0151
##  8  1880 F     Alice      1414 0.0145
##  9  1880 F     Bertha     1320 0.0135
## 10  1880 F     Sarah      1288 0.0132
## # ... with 1,924,655 more rows
```

---

## Remove Subsets

... and `ungroup()` lets you remove any subsets:

```r
grouped <- group_by(babynames, sex, year)
ungroup(grouped)
## # A tibble: 1,924,665 x 5
##     year sex   name          n   prop
##    <dbl> <chr> <chr>     <int>  <dbl>
##  1  1880 F     Mary       7065 0.0724
##  2  1880 F     Anna       2604 0.0267
##  3  1880 F     Emma       2003 0.0205
##  4  1880 F     Elizabeth  1939 0.0199
##  5  1880 F     Minnie     1746 0.0179
##  6  1880 F     Margaret   1578 0.0162
##  7  1880 F     Ida        1472 0.0151
##  8  1880 F     Alice      1414 0.0145
##  9  1880 F     Bertha     1320 0.0135
## 10  1880 F     Sarah      1288 0.0132
## # ... with 1,924,655 more rows
```
…
# <b style='font-size:55pt;'>THE SUPERPOWER OF </b><code style='font-size:60pt;color:#ebc500;line-height:0.5;'>group_by()<br><br></code>
# <b style='font-size:28pt;color:lightgrey;line-height:0.5;'>Verbs will be automatically applied "by group"!</b>

---

## `group_by()` SUPERPOWER!

`group_by()` in combination with other `dplyr` verbs allows you to calculate summary statistics for specified groups:

```r
names_group <- group_by(babynames, sex)
names_group
## # A tibble: 1,924,665 x 5
## # Groups:   sex [2]
##     year sex   name          n   prop
##    <dbl> <chr> <chr>     <int>  <dbl>
##  1  1880 F     Mary       7065 0.0724
##  2  1880 F     Anna       2604 0.0267
##  3  1880 F     Emma       2003 0.0205
##  4  1880 F     Elizabeth  1939 0.0199
##  5  1880 F     Minnie     1746 0.0179
##  6  1880 F     Margaret   1578 0.0162
##  7  1880 F     Ida        1472 0.0151
##  8  1880 F     Alice      1414 0.0145
##  9  1880 F     Bertha     1320 0.0135
## 10  1880 F     Sarah      1288 0.0132
## # ... with 1,924,655 more rows
```
…
---

## `group_by()` SUPERPOWER!

`group_by()` in combination with other `dplyr` verbs allows you to calculate summary statistics for specified groups:

```r
names_1900 <- filter(babynames, year == 1900)
names_1900 <- group_by(names_1900, sex, year)
names_1900
## # A tibble: 3,730 x 5
## # Groups:   sex, year [2]
##     year sex   name          n   prop
##    <dbl> <chr> <chr>     <int>  <dbl>
##  1  1900 F     Mary      16706 0.0526
##  2  1900 F     Helen      6343 0.0200
##  3  1900 F     Anna       6114 0.0192
##  4  1900 F     Margaret   5304 0.0167
##  5  1900 F     Ruth       4765 0.0150
##  6  1900 F     Elizabeth  4096 0.0129
##  7  1900 F     Florence   3920 0.0123
##  8  1900 F     Ethel      3896 0.0123
##  9  1900 F     Marie      3856 0.0121
## 10  1900 F     Lillian    3414 0.0107
## # ... with 3,720 more rows
```
…
